{
    "name":{
        "type": "string"
    },
    "experiments":[
        {
            "cpu": {
                "clock_frequency":{
                    "type": "string"
                },
                "registers":[
                    {
                        "r0":{
                            "type": "int"
                        },
                        "r1":{
                            "type": "int"
                        },
                        "r2":{
                            "type": "int"
                        },
                        "r3":{
                            "type": "int"
                        },
                        "r4":{
                            "type": "int"
                        },
                        "r5":{
                            "type": "int"
                        },
                        "r6":{
                            "type": "int"
                        },
                        "r7":{
                            "type": "int"
                        }
                    }
                ],
                "stats":[
                    {
                        "add":{
                            "units": "calls",
                            "type": "int"
                        },
                        "sub":{
                            "units": "calls",
                            "type": "int"
                        },
                        "and":{
                            "units": "calls",
                            "type": "int"
                        },
                        "nor":{
                            "units": "calls",
                            "type": "int"
                        },
                        "div":{
                            "units": "calls",
                            "type": "int"
                        },
                        "mul":{
                            "units": "calls",
                            "type": "int"
                        },
                        "mod":{
                            "units": "calls",
                            "type": "int"
                        },
                        "exp":{
                            "units": "calls",
                            "type": "int"
                        },
                        "lw":{
                            "units": "calls",
                            "type": "int"
                        },
                        "sw":{
                            "units": "calls",
                            "type": "int"
                        },
                        "liz":{
                            "units": "calls",
                            "type": "int"
                        },
                        "lis":{
                            "units": "calls",
                            "type": "int"
                        },
                        "lui":{
                            "units": "calls",
                            "type": "int"
                        },
                        "bp":{
                            "units": "calls",
                            "type": "int"
                        },
                        "bn":{
                            "units": "calls",
                            "type": "int"
                        },
                        "bx":{
                            "units": "calls",
                            "type": "int"
                        },
                        "bz":{
                            "units": "calls",
                            "type": "int"
                        },
                        "jr":{
                            "units": "calls",
                            "type": "int"
                        },
                        "jal":{
                            "units": "calls",
                            "type": "int"
                        },
                        "j":{
                            "units": "calls",
                            "type": "int"
                        },
                        "halt":{
                            "units": "calls",
                            "type": "int"
                        },
                        "put":{
                            "units": "calls",
                            "type": "int"
                        },
                        "instrutcions":{
                            "units": "calls",
                            "type": "int"
                        },
                        "cycles":{
                            "units": "calls",
                            "type": "int"
                        }
                    }
                ]
            },
            "memory": {
                "clock": {
                    "type": "string"
                }
            },
            "l1cache":{
                "cache_misses":{
                     "type": "int"
                },
                "cache_latency_cycles":{
                     "type": "int"
                },
                "associativity":{
                    "type": "int"
                },
                "cache_frequency":{
                    "type": "string"
                },
                "cache_line_size":{
                    "type": "int"
                },
                "cache_size":{
                    "type": "string"
                }
            },
            "l2cache":{
                "cache_latency_cycles":{
                    "type": "int"
                },
                "associativity":{
                    "type": "int"
                },
                "cache_frequency":{
                    "type": "string"
                },
                "cache_size":{
                    "type": "string"
                }
            },
            "input_program": {
                "type": "string"
            }
        }
    ],
    "plots": {
        "mem_freq_vs_cpu_cycles": [
            {
                "x_data":{
                    "type":"array",
                    "element":{
                        "type":"string"
                    }
                },
                "y_data":{
                    "type":"array",
                    "element":{
                        "type":"int"
                    }
                },
                "legend":{
                    "type":"string"
                }

            }
        ],
        "blocksize_vs_l1_cachemisses": [
            {
                "x_data":{
                    "type":"array",
                    "element":{
                        "type":"int"
                    }
                },
                "y_data":{
                    "type":"array",
                    "element":{
                        "type":"int"
                    }
                },
                "legend":{
                    "type":"string"
                }

            }
        ],
        "blocksize_vs_l2_cachemisses": [
            {
                "x_data":{
                    "type":"array",
                    "element":{
                        "type":"int"
                    }
                },
                "y_data":{
                    "type":"array",
                    "element":{
                        "type":"int"
                    }
                },
                "legend":{
                    "type":"string"
                }

            }
        ],
        "blocksize_vs_cpu_cycles": [
            {
                "x_data":{
                    "type":"array",
                    "element":{
                        "type":"int"
                    }
                },
                "y_data":{
                    "type":"array",
                    "element":{
                        "type":"int"
                    }
                },
                "legend":{
                    "type":"string"
                }

            }
        ],
        "l1_associativity_vs_cpu_cycles": [
            {
                "x_data":{
                    "type":"array",
                    "element":{
                        "type":"int"
                    }
                },
                "y_data":{
                    "type":"array",
                    "element":{
                        "type":"int"
                    }
                },
                "legend":{
                    "type":"string"
                }

            }
        ],
        "l2_associativity_vs_cpu_cycles": [
            {
                "x_data":{
                    "type":"array",
                    "element":{
                        "type":"int"
                    }
                },
                "y_data":{
                    "type":"array",
                    "element":{
                        "type":"int"
                    }
                },
                "legend":{
                    "type":"string"
                }

            }
        ],
        "cache_levels_vs_cpu_cycles": [
            {
                "x_data":{
                    "type":"array",
                    "element":{
                        "type":"int"
                    }
                },
                "y_data":{
                    "type":"array",
                    "element":{
                        "type":"int"
                    }
                },
                "legend":{
                    "type":"string"
                }

            }
        ],
        "total_cache_size_vs_cpu_cycles": [
            {
                "x_data":{
                    "type":"array",
                    "element":{
                        "type":"int"
                    }
                },
                "y_data":{
                    "type":"array",
                    "element":{
                        "type":"int"
                    }
                },
                "legend":{
                    "type":"string"
                }

            }
        ]
    }
}
